\relax 
\@writefile{toc}{\contentsline {section}{\numberline {1}Definice probl\IeC {\'e}mu a popis sekven\IeC {\v c}n\IeC {\'\i }ho algoritmu}{1}}
\@writefile{lot}{\contentsline {table}{\numberline {1}{\ignorespaces \IeC {\v C}asy v\IeC {\'y}po\IeC {\v c}t\IeC {\r u} sekven\IeC {\v c}n\IeC {\'\i }ho \IeC {\v r}e\IeC {\v s}en\IeC {\'\i } nad dan\IeC {\'y}mi vstupy\relax }}{2}}
\providecommand*\caption@xref[2]{\@setref\relax\@undefined{#1}}
\newlabel{table_time}{{1}{2}}
\@writefile{toc}{\contentsline {section}{\numberline {2}OpenMP - task paralelismus}{2}}
\@writefile{toc}{\contentsline {section}{\numberline {3}OpenMP - datov\IeC {\'y} paralelismus}{2}}
\@writefile{toc}{\contentsline {section}{\numberline {4}Popis paraleln\IeC {\'\i }ho algoritmu a jeho implementace v MPI}{2}}
\@writefile{toc}{\contentsline {section}{\numberline {5}Nam\IeC {\v e}\IeC {\v r}en\IeC {\'e} v\IeC {\'y}sledky a vyhodnocen\IeC {\'\i }}{3}}
\newlabel{plot_of_results}{{5}{3}}
\@writefile{lot}{\contentsline {table}{\numberline {2}{\ignorespaces \IeC {\v C}asy v\IeC {\'y}po\IeC {\v c}t\IeC {\r u} v ms na instanc\IeC {\'\i }ch A, B, C\relax }}{4}}
\newlabel{table_measuring}{{2}{4}}
\@writefile{toc}{\contentsline {section}{\numberline {6}Z\IeC {\'a}v\IeC {\v e}r}{4}}
